Lab 1: Intro to R
…
Fun Nikkat Afrin

2024-09-01

Loading pacakges using library function.

library(tidyverse)
library(openintro)

Arbuthnot Data set:

arbuthnot

## # A tibble: 82 × 3
##     year  boys girls
##    <int> <int> <int>
##  1  1629  5218  4683
##  2  1630  4858  4457
##  3  1631  4422  4102
##  4  1632  4994  4590
##  5  1633  5158  4839
##  6  1634  5035  4820
##  7  1635  5106  4928
##  8  1636  4917  4605
##  9  1637  4703  4457
## 10  1638  5359  4952
## # ℹ 72 more rows
…
Proportion Around 0.51 to 0.53: The proportion mostly
oscillates between approximately 0.51 and 0.53.

Even though we observe there are higher no of boys baptized in
the year 1655’s to 1660’s we also observed in the previous graphs that
there was a dip in the trend for no of girls baptized and total no of
children baptised.

Exercise 4

Loading Present Data Set:

present

## # A tibble: 63 × 3
##     year    boys   girls
##    <dbl>   <dbl>   <dbl>
##  1  1940 1211684 1148715
##  2  1941 1289734 1223693
##  3  1942 1444365 1364631
##  4  1943 1508959 1427901
##  5  1944 1435301 1359499
##  6  1945 1404587 1330869
##  7  1946 1691220 1597452
##  8  1947 1899876 1800064
##  9  1948 1813852 1721216
## 10  1949 1826352 1733177
## # ℹ 53 more rows
…
In the data set the years from 1940 - early 2000’s were
included.

present

## # A tibble: 63 × 3
##     year    boys   girls
##    <dbl>   <dbl>   <dbl>
##  1  1940 1211684 1148715
##  2  1941 1289734 1223693
##  3  1942 1444365 1364631
##  4  1943 1508959 1427901
##  5  1944 1435301 1359499
##  6  1945 1404587 1330869
##  7  1946 1691220 1597452
##  8  1947 1899876 1800064
##  9  1948 1813852 1721216
## 10  1949 1826352 1733177
## # ℹ 53 more rows
…
Exercise 7

In what year did we see the most total number of births in
the U.S.? 

# Insert code for Exercise 7 here
present %>%
arrange(desc(total))

## # A tibble: 63 × 6
##     year    boys   girls   total present_boy_ratio present_girl_ratio
##    <dbl>   <dbl>   <dbl>   <dbl>             <dbl>              <dbl>
##  1  1961 2186274 2082052 4268326             0.512              0.488
##  2  1960 2179708 2078142 4257850             0.512              0.488
##  3  1957 2179960 2074824 4254784             0.512              0.488
##  4  1959 2173638 2071158 4244796             0.512              0.488
##  5  1958 2152546 2051266 4203812             0.512              0.488
##  6  1962 2132466 2034896 4167362             0.512              0.488
##  7  1956 2133588 2029502 4163090             0.513              0.487
##  8  1990 2129495 2028717 4158212             0.512              0.488
##  9  1991 2101518 2009389 4110907             0.511              0.489
## 10  1963 2101632 1996388 4098020             0.513              0.487
## # ℹ 53 more rows
…
